yonga_archs/cell_library/OR2_tb.vcd
$date
	Thu Jan 16 16:09:50 2025
$end

$version
	Synopsys VCS version T-2022.06-SP1_Full64
$end

$timescale
	1ps
$end

$comment Csum: 1 f34c1977bb574eb5 $end


$scope module OR2_tb $end
$var reg 1 ! A1 $end
$var reg 1 " A2 $end
$var wire 1 # Z $end

$scope module uut $end
$var wire 1 $ A1 $end
$var wire 1 % A2 $end
$var wire 1 # Z $end
$upscope $end

$upscope $end

$enddefinitions $end

#0
$dumpvars
0!
0"
0$
0%
x#
$end
#100
0#
#10000
1"
1%
#10100
1#
#20000
1!
1$
0"
0%
#30000
1"
1%
#40000
0!
0$
0"
0%
#40100
0#
